<?xml version="1.0" encoding="utf-8"?>
<!-- Generator: Adobe Illustrator 21.0.2, SVG Export Plug-In . SVG Version: 6.00 Build 0)  -->
<svg version="1.1" id="Layer_1" xmlns="http://www.w3.org/2000/svg" xmlns:xlink="http://www.w3.org/1999/xlink" x="0px" y="0px"
	 viewBox="0 0 28.4 13.8" style="enable-background:new 0 0 28.4 13.8;" xml:space="preserve">
<style type="text/css">
	.st0{clip-path:url(#SVGID_2_);}
	.st1{fill:#FFFFFF;}
</style>
<g id="Layer_2">
	<g id="Слой_1">
		<g>
			<defs>
				<rect id="SVGID_1_" x="-78.2" width="109.9" height="37.8"/>
			</defs>
			<clipPath id="SVGID_2_">
				<use xlink:href="#SVGID_1_"  style="overflow:visible;"/>
			</clipPath>
			<g class="st0">
				<path class="st1" d="M12.4,3.3c0.5,0,1,0.1,1.4,0.4v6.1c-0.4,0.3-1,0.5-1.5,0.5c-0.5,0-1.1-0.1-1.5-0.4c-0.5-0.3-0.8-0.7-1-1.2
					C9.5,8,9.4,7.4,9.5,6.7c0-0.6,0.1-1.1,0.3-1.7c0.2-0.5,0.5-1,0.9-1.3C11.2,3.4,11.8,3.2,12.4,3.3 M0,0v13.8h13.8v-2.5
					c-0.5,0.2-0.9,0.2-1.4,0.2c-0.8,0-1.7-0.2-2.4-0.6c-0.6-0.4-1.1-1-1.4-1.8C8.2,8.4,8.1,7.6,8.1,6.7c0-0.9,0.2-1.7,0.5-2.5
					C9,3.6,9.5,3,10.2,2.6c0.7-0.4,1.4-0.6,2.2-0.5c0.5,0,0.9,0.1,1.4,0.2V0H0z"/>
				<path class="st1" d="M28.4,13.8H14.6V0h13.8L28.4,13.8z M25.9,2.4h-1.8l-2.2,6.3l-0.4,1.1l-0.3-1l-2.1-6.3V2.4h-2v9.1h1.3V4.4
					l2.4,7v0.1h1.2l2.4-7v7h1.3L25.9,2.4z"/>
			</g>
		</g>
	</g>
</g>
</svg>
