<?xml version="1.0" encoding="utf-8"?>
<!-- Generator: Adobe Illustrator 22.1.0, SVG Export Plug-In . SVG Version: 6.00 Build 0)  -->
<svg version="1.1" id="Слой_1" xmlns="http://www.w3.org/2000/svg" xmlns:xlink="http://www.w3.org/1999/xlink" x="0px" y="0px"
	 viewBox="0 0 203.7 90.2" style="enable-background:new 0 0 203.7 90.2;" xml:space="preserve">
<style type="text/css">
	.st0{fill:#5D4D76;}
	.st1{clip-path:url(#SVGID_2_);fill:#5D4D76;}
	.st2{clip-path:url(#SVGID_2_);fill:#394049;}
	.st3{clip-path:url(#SVGID_2_);fill:#C53F34;}
</style>
<polygon class="st0" points="125.6,74.2 125.6,89.9 127.7,89.9 127.7,82.7 134.9,82.7 134.9,81 127.7,81 127.7,76 135.9,76 
	135.9,74.2 "/>
<g>
	<defs>
		<rect id="SVGID_1_" width="203.7" height="90.2"/>
	</defs>
	<clipPath id="SVGID_2_">
		<use xlink:href="#SVGID_1_"  style="overflow:visible;"/>
	</clipPath>
	<path class="st1" d="M147.3,89.9h-1.8v-1.8h0c-0.8,1.4-2.1,2.1-3.7,2.1c-3,0-3.9-1.7-3.9-4.1v-7.5h1.9v7.7c0,1.4,0.9,2.3,2.3,2.3
		c2.3,0,3.4-1.5,3.4-3.6v-6.4h1.9V89.9z"/>
	<rect x="150.2" y="74.2" class="st1" width="1.9" height="15.7"/>
	<rect x="155.1" y="74.2" class="st1" width="1.9" height="15.7"/>
	<path class="st1" d="M159.8,78.6h1.8v1.8h0c0.8-1.4,2.1-2.1,3.7-2.1c3,0,3.9,1.7,3.9,4.1v7.5h-1.9v-7.7c0-1.4-0.9-2.3-2.3-2.3
		c-2.3,0-3.4,1.5-3.4,3.6v6.4h-1.9V78.6z"/>
	<path class="st1" d="M181.7,86.3c-0.5,2.5-2.3,3.9-4.8,3.9c-3.6,0-5.3-2.5-5.4-6c0-3.4,2.2-5.9,5.3-5.9c4,0,5.2,3.8,5.1,6.5h-8.5
		c-0.1,2,1.1,3.7,3.5,3.7c1.5,0,2.6-0.7,2.9-2.2H181.7z M179.9,83.1c-0.1-1.8-1.4-3.2-3.3-3.2c-2,0-3.1,1.5-3.2,3.2H179.9z"/>
	<path class="st1" d="M185,86.3c0.1,1.7,1.5,2.2,3,2.2c1.2,0,2.7-0.3,2.7-1.7c0-1.4-1.8-1.7-3.7-2.1c-1.8-0.4-3.7-1-3.7-3.2
		c0-2.3,2.3-3.2,4.2-3.2c2.5,0,4.5,0.8,4.7,3.6h-1.9c-0.1-1.4-1.4-1.9-2.6-1.9c-1.1,0-2.4,0.3-2.4,1.4c0,1.3,2,1.6,3.7,2
		c1.9,0.4,3.7,1,3.7,3.2c0,2.7-2.5,3.6-4.8,3.6c-2.5,0-4.7-1-4.8-3.8H185z"/>
	<path class="st1" d="M195.9,86.3c0.1,1.7,1.5,2.2,3,2.2c1.2,0,2.7-0.3,2.7-1.7c0-1.4-1.8-1.7-3.7-2.1c-1.8-0.4-3.7-1-3.7-3.2
		c0-2.3,2.3-3.2,4.2-3.2c2.5,0,4.5,0.8,4.7,3.6h-1.9c-0.1-1.4-1.4-1.9-2.6-1.9c-1.1,0-2.4,0.3-2.4,1.4c0,1.3,2,1.6,3.7,2
		c1.9,0.4,3.7,1,3.7,3.2c0,2.7-2.5,3.6-4.8,3.6c-2.5,0-4.7-1-4.8-3.8H195.9z"/>
	<path class="st2" d="M11.8,78.8c-0.4-2.2-2.2-3.3-4.4-3.3c-3.7,0-5.3,3.1-5.3,6.3c0,3.6,1.6,6.6,5.3,6.6c2.7,0,4.3-1.9,4.5-4.5H14
		c-0.4,3.9-2.8,6.3-6.8,6.3C2.4,90.2,0,86.6,0,82c0-4.5,2.6-8.2,7.4-8.2c3.3,0,6,1.8,6.4,5.1H11.8z"/>
	<rect x="16.4" y="74.1" class="st2" width="1.9" height="15.7"/>
	<path class="st2" d="M23.1,76.4h-1.9v-2.3h1.9V76.4z M21.3,78.4h1.9v11.3h-1.9V78.4z"/>
	<path class="st2" d="M26,78.4h1.8v1.8h0c0.8-1.4,2.1-2.1,3.7-2.1c3,0,3.9,1.7,3.9,4.1v7.5h-1.9v-7.7c0-1.4-0.9-2.3-2.3-2.3
		c-2.3,0-3.4,1.5-3.4,3.6v6.4H26V78.4z"/>
	<path class="st2" d="M40.2,76.4h-1.9v-2.3h1.9V76.4z M38.3,78.4h1.9v11.3h-1.9V78.4z"/>
	<path class="st2" d="M50.8,82.1c-0.3-1.4-1.3-2.3-2.8-2.3c-2.7,0-3.5,2.1-3.5,4.4c0,2.1,0.9,4.1,3.3,4.1c1.8,0,2.9-1.1,3.1-2.8h1.9
		c-0.4,2.8-2.2,4.4-5,4.4c-3.5,0-5.3-2.4-5.3-5.8c0-3.4,1.8-6.1,5.4-6.1c2.6,0,4.6,1.2,4.9,3.9H50.8z"/>
	<path class="st2" d="M64.9,89.7c-0.3,0.2-0.7,0.3-1.3,0.3c-1,0-1.6-0.5-1.6-1.8c-1,1.2-2.4,1.8-4,1.8c-2.1,0-3.8-0.9-3.8-3.2
		c0-2.6,1.9-3.1,3.8-3.5c2.1-0.4,3.8-0.3,3.8-1.7c0-1.6-1.3-1.9-2.5-1.9c-1.6,0-2.7,0.5-2.8,2.2h-1.9c0.1-2.8,2.3-3.8,4.8-3.8
		c2,0,4.3,0.5,4.3,3.1v5.8c0,0.9,0,1.3,0.6,1.3c0.2,0,0.3,0,0.6-0.1V89.7z M61.9,83.9c-0.7,0.5-2.1,0.5-3.4,0.8
		c-1.2,0.2-2.3,0.7-2.3,2c0,1.2,1.1,1.7,2.2,1.7c2.5,0,3.5-1.5,3.5-2.6V83.9z"/>
	<rect x="66.8" y="74.1" class="st2" width="1.9" height="15.7"/>
	<polygon class="st3" points="71.9,74.1 74.7,74.1 79.7,87.3 84.6,74.1 87.5,74.1 87.5,89.8 85.5,89.8 85.5,76.8 85.5,76.8 
		80.6,89.8 78.8,89.8 73.9,76.8 73.9,76.8 73.9,89.8 71.9,89.8 	"/>
	<path class="st3" d="M92.6,76.4h-1.9v-2.3h1.9V76.4z M90.8,78.4h1.9v11.3h-1.9V78.4z"/>
	<path class="st3" d="M95.5,78.4h1.8v1.8h0c0.8-1.4,2.1-2.1,3.7-2.1c3,0,3.9,1.7,3.9,4.1v7.5H103v-7.7c0-1.4-0.9-2.3-2.3-2.3
		c-2.3,0-3.4,1.5-3.4,3.6v6.4h-1.9V78.4z"/>
	<path class="st3" d="M117.9,89.8H116v-1.5h0c-0.6,1.3-2.1,1.8-3.6,1.8c-3.5,0-5.2-2.8-5.2-6c0-3.2,1.7-5.9,5.2-5.9
		c1.2,0,2.8,0.4,3.7,1.8h0v-5.8h1.9V89.8z M112.6,88.4c2.5,0,3.5-2.2,3.5-4.3c0-2.2-1-4.3-3.6-4.3c-2.5,0-3.4,2.2-3.4,4.4
		C109.1,86.3,110.2,88.4,112.6,88.4"/>
	<path class="st3" d="M120.2,75.1c1,0,1.8,0.8,1.8,1.8c0,1-0.8,1.8-1.8,1.8c-1,0-1.8-0.8-1.8-1.8C118.4,75.9,119.2,75.1,120.2,75.1
		 M120.2,78.4c0.8,0,1.4-0.7,1.4-1.5c0-0.8-0.6-1.5-1.4-1.5c-0.8,0-1.5,0.7-1.5,1.5C118.8,77.7,119.4,78.4,120.2,78.4 M119.5,75.8
		h0.8c0.5,0,0.7,0.2,0.7,0.6c0,0.4-0.2,0.5-0.5,0.6l0.6,0.9h-0.3l-0.6-0.9h-0.3v0.9h-0.3V75.8z M119.8,76.7h0.3c0.3,0,0.5,0,0.5-0.3
		c0-0.3-0.2-0.3-0.5-0.3h-0.4V76.7z"/>
	<path class="st2" d="M47.2,51.5c-2.9-1.9-5.2-4.7-6.7-8.3c-1.5-3.6-2.3-7.4-2.3-11.5c0-4.4,0.9-8.4,2.6-11.7
		c1.7-3.3,4.2-5.9,7.4-7.6c3.2-1.7,6.7-2.6,10.5-2.6c2.4,0,4.5,0.4,6.5,1V0H0v65.1h65.1V53.3c-2,0.7-4.2,1.1-6.6,1.1
		C53.9,54.4,50.1,53.4,47.2,51.5 M50.7,17.8c-2.1,1.5-3.6,3.5-4.4,6C45.4,26.4,45,29,45,31.7c0,3.5,0.5,6.6,1.5,9.2
		c1,2.6,2.6,4.5,4.7,5.8c2.1,1.3,4.4,1.9,6.9,1.9c2.7,0,5.1-0.7,7.1-2.2v-29c-1.8-1.3-4-1.9-6.6-1.9C55.4,15.5,52.8,16.3,50.7,17.8"
		/>
	<path class="st3" d="M69.3,65.1h65.1V0H69.3V65.1z M122.4,54.4h-6.3V21.5l-11.4,32.9h-5.7L87.5,20.9v33.5h-6.3V11.3h9.2l10.1,30.2
		c0.6,1.9,1.2,3.5,1.6,4.8c0.5-1.4,1.1-3.2,1.8-5.3l10.2-29.7h8.3V54.4z"/>
	<path class="st1" d="M138.6,65.1h65.1V0h-65.1V65.1z M174.7,51.6l-3.4,3.1l-3.4-3.1c-12.5-11-20.6-18.5-20.6-27.6
		c0-7.4,5.8-13.2,13.2-13.2c4.1,0,8.2,1.9,10.8,5c2.6-3.1,6.7-5,10.8-5c7.4,0,13.2,5.8,13.2,13.2C195.4,32.8,187,40.3,174.7,51.6
		 M190.6,24c0,7-7.4,13.7-19,24.2h-0.2l-0.2-0.2c-11.5-10.3-19-17-19-24c0-4.8,3.6-8.4,8.4-8.4c3.6,0,7.2,2.4,8.6,5.8h4.6
		c1.2-3.4,4.8-5.8,8.4-5.8C187,15.6,190.6,19.2,190.6,24"/>
</g>
</svg>
