<?xml version="1.0" encoding="utf-8"?>
<!-- Generator: Adobe Illustrator 21.0.2, SVG Export Plug-In . SVG Version: 6.00 Build 0)  -->
<svg version="1.1" id="Layer_1" xmlns="http://www.w3.org/2000/svg" xmlns:xlink="http://www.w3.org/1999/xlink" x="0px" y="0px"
	 viewBox="0 0 110 37.8" style="enable-background:new 0 0 110 37.8;" xml:space="preserve">
<style type="text/css">
	.st0{clip-path:url(#SVGID_2_);}
	.st1{fill:#333E48;}
	.st2{fill:#E63C2F;}
	.st3{font-family:'MyriadPro-Regular';}
	.st4{font-size:6.19px;}
</style>
<g id="Layer_2">
	<g id="Слой_1">
		<g>
			<defs>
				<rect id="SVGID_1_" width="109.9" height="37.8"/>
			</defs>
			<clipPath id="SVGID_2_">
				<use xlink:href="#SVGID_1_"  style="overflow:visible;"/>
			</clipPath>
			<g class="st0">
				<path class="st1" d="M90.6,3.3c0.5,0,1,0.1,1.4,0.4v6.1c-0.4,0.3-1,0.5-1.5,0.5c-0.5,0-1.1-0.1-1.5-0.4c-0.5-0.3-0.8-0.7-1-1.2
					c-0.2-0.6-0.3-1.3-0.3-2c0-0.6,0.1-1.1,0.3-1.7c0.2-0.5,0.5-1,0.9-1.3C89.4,3.4,90,3.2,90.6,3.3 M78.2,0v13.8H92v-2.5
					c-0.5,0.2-0.9,0.2-1.4,0.2c-0.8,0-1.7-0.2-2.4-0.6c-0.6-0.4-1.1-1-1.4-1.8c-0.3-0.8-0.5-1.6-0.5-2.4c0-0.9,0.2-1.7,0.5-2.5
					c0.3-0.7,0.9-1.3,1.6-1.6c0.7-0.4,1.4-0.6,2.2-0.5c0.5,0,0.9,0.1,1.4,0.2V0H78.2z"/>
				<path class="st2" d="M106.6,13.8H92.9V0h13.8L106.6,13.8z M104.1,2.4h-1.8l-2.2,6.3l-0.4,1.1l-0.3-1l-2.1-6.3V2.4h-2v9.1h1.3
					V4.4l2.4,7v0.1h1.2l2.4-7v7h1.3L104.1,2.4z"/>
				<path class="st1" d="M10.9,32.4l1.9,0.5c-0.3,1.4-1.1,2.7-2.2,3.6c-1.1,0.8-2.4,1.3-3.8,1.2c-1.3,0-2.7-0.3-3.8-1
					c-1-0.7-1.8-1.6-2.2-2.7C0.3,32.8,0,31.5,0,30.2c0-1.4,0.3-2.8,0.9-4c0.5-1.1,1.4-2,2.5-2.6c1.1-0.6,2.3-0.9,3.5-0.9
					c1.3,0,2.6,0.4,3.7,1.1c1,0.8,1.8,1.9,2.1,3.1l-1.9,0.5c-0.2-0.9-0.8-1.7-1.5-2.3c-0.7-0.5-1.5-0.8-2.4-0.7c-1,0-2,0.2-2.8,0.8
					c-0.7,0.5-1.3,1.3-1.6,2.1C2.1,28.3,2,29.2,2,30.2c0,1.1,0.2,2.2,0.5,3.2c0.3,0.9,0.9,1.6,1.7,2.1c0.7,0.4,1.6,0.7,2.5,0.7
					c1,0,2-0.3,2.7-0.9C10.2,34.5,10.7,33.5,10.9,32.4"/>
				<rect x="14.9" y="23" class="st1" width="1.8" height="14.5"/>
				<path class="st1" d="M19.5,23h1.8v2h-1.8V23z M19.5,27h1.8v10.5h-1.8V27z"/>
				<path class="st1" d="M24,37.5V27h1.6v1.5c0.7-1.1,2-1.8,3.3-1.7c0.6,0,1.2,0.1,1.8,0.3c0.5,0.2,0.9,0.5,1.2,0.9
					c0.3,0.4,0.5,0.8,0.5,1.3c0.1,0.6,0.1,1.2,0.1,1.7v6.5h-1.8v-6.4c0-0.6,0-1.1-0.2-1.6c-0.1-0.4-0.4-0.7-0.7-0.9
					c-0.4-0.2-0.8-0.3-1.2-0.3c-0.7,0-1.4,0.2-2,0.7c-0.6,0.8-0.9,1.8-0.8,2.7v5.7H24z"/>
				<path class="st1" d="M35.2,23H37v2h-1.8V23z M35.2,27H37v10.5h-1.8V27z"/>
				<path class="st1" d="M46.6,33.7l1.8,0.2c-0.1,1.1-0.7,2.1-1.5,2.8c-0.8,0.7-1.8,1-2.9,1c-1.3,0.1-2.6-0.5-3.5-1.4
					c-0.9-1.1-1.4-2.5-1.3-4c0-1,0.2-2.1,0.6-3c0.3-0.8,0.9-1.5,1.7-1.9c0.8-0.4,1.7-0.7,2.5-0.6c1,0,2,0.3,2.8,0.9
					c0.7,0.6,1.2,1.5,1.4,2.5l-1.7,0.3c-0.1-0.6-0.4-1.2-0.9-1.6c-0.4-0.4-1-0.6-1.6-0.5c-0.8,0-1.7,0.4-2.2,1
					c-0.6,0.9-0.9,1.9-0.8,3c-0.1,1.1,0.2,2.2,0.8,3.1c0.5,0.6,1.3,1,2.1,1c0.6,0,1.3-0.2,1.8-0.6C46.2,35.2,46.5,34.5,46.6,33.7"/>
				<path class="st1" d="M56.7,36.2c-0.6,0.5-1.2,0.9-1.9,1.2c-0.6,0.2-1.3,0.4-2,0.3c-1,0.1-1.9-0.2-2.7-0.8
					c-0.6-0.5-1-1.3-0.9-2.2c0-0.5,0.1-1,0.3-1.4c0.2-0.4,0.5-0.7,0.9-1c0.4-0.3,0.8-0.5,1.3-0.6c0.5-0.1,1-0.2,1.6-0.3
					c1.1-0.1,2.1-0.3,3.2-0.6c0-0.2,0-0.4,0-0.5c0.1-0.6-0.1-1.1-0.5-1.5c-0.6-0.4-1.3-0.6-2-0.6c-0.6,0-1.3,0.1-1.8,0.4
					c-0.5,0.4-0.8,1-0.9,1.6L49.6,30c0.1-0.7,0.4-1.3,0.8-1.8c0.4-0.5,1-0.9,1.6-1.1c0.8-0.3,1.6-0.4,2.4-0.4c0.7,0,1.5,0.1,2.2,0.3
					c0.5,0.2,0.9,0.4,1.2,0.8c0.3,0.4,0.5,0.8,0.5,1.2c0.1,0.5,0.1,1.1,0.1,1.6v2.4c0,1,0,2.1,0.1,3.1c0.1,0.4,0.2,0.9,0.5,1.3h-1.9
					C56.9,37.1,56.8,36.7,56.7,36.2 M56.6,32.2c-0.9,0.3-1.9,0.6-2.9,0.7c-0.5,0.1-1,0.2-1.5,0.4c-0.3,0.1-0.5,0.3-0.7,0.6
					c-0.4,0.6-0.3,1.5,0.3,2c0.5,0.3,1,0.5,1.6,0.5c0.6,0,1.3-0.1,1.8-0.5c0.5-0.3,0.9-0.7,1.2-1.2c0.2-0.6,0.3-1.2,0.3-1.8
					L56.6,32.2z"/>
				<rect x="61.1" y="23" class="st1" width="1.8" height="14.5"/>
				<path class="st2" d="M65.8,37.5V23h2.9l3.4,10.3c0.3,1,0.6,1.7,0.7,2.2c0.2-0.5,0.4-1.3,0.8-2.3L77.1,23h2.6v14.5h-1.9V25.4
					l-4.2,12.1h-1.7l-4.2-12.3v12.3H65.8z"/>
				<path class="st2" d="M82.5,23h1.8v2h-1.8V23z M82.5,27h1.8v10.5h-1.8V27z"/>
				<path class="st2" d="M87,37.5V27h1.6v1.5c0.7-1.1,2-1.8,3.4-1.7c0.6,0,1.2,0.1,1.8,0.3c0.5,0.2,0.9,0.5,1.2,0.9
					c0.3,0.4,0.5,0.8,0.6,1.3c0.1,0.6,0.1,1.2,0.1,1.7v6.5h-1.8v-6.4c0-0.6,0-1.1-0.2-1.6c-0.1-0.4-0.4-0.7-0.7-0.9
					c-0.4-0.2-0.8-0.3-1.2-0.3c-0.7,0-1.4,0.2-2,0.7c-0.6,0.8-0.9,1.8-0.8,2.7v5.7H87z"/>
				<path class="st2" d="M105.1,37.5v-1.3c-0.6,1-1.7,1.6-2.9,1.6c-0.8,0-1.6-0.2-2.3-0.7c-0.7-0.5-1.3-1.1-1.6-1.9
					c-0.4-0.9-0.6-1.9-0.6-2.8c0-1,0.2-1.9,0.5-2.9c0.3-0.8,0.8-1.5,1.6-2c0.7-0.5,1.5-0.7,2.3-0.7c0.6,0,1.2,0.1,1.7,0.4
					c0.5,0.2,0.9,0.6,1.2,1V23h1.8v14.5L105.1,37.5z M99.5,32.3c-0.1,1.1,0.2,2.1,0.8,3c0.5,0.6,1.2,1,2,1c0.8,0,1.5-0.4,2-1
					c0.6-0.8,0.9-1.9,0.8-2.9c0.1-1.1-0.2-2.2-0.8-3.2c-0.5-0.6-1.2-1-2-1c-0.8,0-1.5,0.4-2,1C99.7,30.1,99.4,31.2,99.5,32.3"/>
				<text transform="matrix(1 0 0 1 107.41 27.35)" class="st2 st3 st4">®</text>
			</g>
		</g>
	</g>
</g>
</svg>
